get-started • msmsimr
…
msm <- MSM(
  Exponential(log(2) / 3),
  Exponential(log(2) / 6),
  Exponential(log(2) / 12),
  Exponential(log(2) / 3),
  tmat = tmat,
  tmax = 60
)

It is then possible to simulate trajectories from the model

tbl_data <- simulate(msm, nsim = 200)
tbl_data
#> # A tibble: 513 × 8
#>    id    Tstart  Tstop duration from        to          status trans
#>    <fct>  <dbl>  <dbl>    <dbl> <fct>       <fct>        <dbl> <dbl>
#>  1 2      0      3.97     3.97  start       response         1     1
#>  2 2      3.97  13.1      9.14  response    progression      1     3
#>  3 2     13.1   16.0      2.89  progression death            1     4
#>  4 4      0      0.962    0.962 start       response         1     1
#>  5 4      0.962 24.2     23.2   response    progression      1     3
#>  6 4     24.2   36.2     12.0   progression death            1     4
#>  7 6      0      2.89     2.89  start       response         1     1
#>  8 6      2.89  25.6     22.7   response    progression      1     3
#>  9 6     25.6   27.3      1.68  progression death            1     4
#> 10 8      0     13.3     13.3   start       progression      1     2
#> # … with 503 more rows
…
